<svg xmlns="http://www.w3.org/2000/svg" xmlns:xlink="http://www.w3.org/1999/xlink" width="38" height="38" viewBox="0 0 38 38">
    <defs>
        <path id="a" d="M.198 22.255L6.42 16.03l5.564-1.1C19.066 5.3 32.612.485 37.516.485c0 4.904-4.816 18.45-14.448 25.531l-1.1 5.564-6.223 6.223-1.561-7.763c-3.1 0-3.1 0-4.662-1.561-1.561-1.561-1.561-1.561-1.561-4.662L.198 22.255zm6.223 6.223l3.101 3.1-5.85 5.872H.55v-3.122l5.871-5.85zm-3.122-3.1l2.726.373-5.41 5.388v-3.123L3.3 25.377zm8.95 6.597l.374 2.726-2.64 2.683H6.862l5.388-5.41z"/>
    </defs>
    <g fill="none" fill-rule="evenodd">
        <g fill-rule="nonzero">
            <use fill="#C41E25" fill-rule="evenodd" xlink:href="#a"/>
            <path stroke="#FFF" d="M7.461 24.226c.007 2.166.078 2.612.543 3.31.224.338.44.571 1.164 1.296.725.724.958.94 1.296 1.164.698.465 1.144.536 3.31.543l1.481 7.362.184.914.66-.66 6.223-6.223.108-.107.03-.15 1.061-5.373C31.746 20.152 38.016 7.39 38.016.484v-.5h-.5c-6.906 0-19.669 6.27-25.818 14.495L6.324 15.54l-.149.03-.107.107L-.156 21.9l-.66.66.915.184 7.362 1.48zm-.686 3.898l-.353-.352-.354.352-5.871 5.85-.147.146v3.83h3.83l.147-.147 5.85-5.871.351-.354-.352-.353-3.101-3.1zm-3.408-3.242l-.244-.033-.175.172L.265 27.66l-.15.147v4.536l.854-.85 5.41-5.388.715-.712-1-.137-2.727-.374zm9.377 7.025l-.137-1-.712.715-5.388 5.41-.85.852h4.537l.146-.15 2.64-2.682.171-.175-.033-.244-.374-2.726z"/>
        </g>
        <circle cx="22.557" cy="15.453" r="6.16" fill="#FFF" stroke="#FFF" stroke-width=".5"/>
        <path fill="#656A72" fill-rule="nonzero" d="M27.776 13.228a5.709 5.709 0 0 0-7.424-3.151 5.71 5.71 0 0 0-3.15 7.424 5.709 5.709 0 0 0 7.423 3.15 5.709 5.709 0 0 0 3.15-7.423zm-3.48 6.608a4.828 4.828 0 0 1-6.28-2.665 4.828 4.828 0 0 1 2.666-6.279 4.828 4.828 0 0 1 6.278 2.665 4.828 4.828 0 0 1-2.665 6.279zm-3.162-6.724a.667.667 0 1 1 1.227.521.667.667 0 0 1-1.227-.52zm2.781 1.181a.667.667 0 1 1 1.228.522.667.667 0 0 1-1.228-.522zm.385 3.129c-.754.718-1.885.908-2.883.484-1.02-.432-1.673-1.384-1.665-2.423a.322.322 0 1 1 .645.005c-.006.778.493 1.494 1.272 1.825.76.323 1.619.182 2.186-.358a.322.322 0 1 1 .445.467z"/>
    </g>
</svg>
